<svg width="52" height="36" viewBox="0 0 52 36" fill="none" xmlns="http://www.w3.org/2000/svg">
<path d="M26 12.1666V23.8333" stroke="#19FFFF" stroke-width="2" stroke-linecap="round" stroke-linejoin="round"/>
<path d="M20.1665 18H31.8332" stroke="#19FFFF" stroke-width="2" stroke-linecap="round" stroke-linejoin="round"/>
<rect x="0.5" y="0.5" width="51" height="35" rx="3.5" stroke="#19FFFF"/>
</svg>
